{
  "baseUrl": "http://localhost:4200",
  "chromeWebSecurity": false,
  "viewportWidth": 1920,
  "viewportHeight": 1080,
  "defaultCommandTimeout": 30000,
  "integrationFolder": "tests",
  "pluginsFile": "plugins.ts",
  "fixturesFolder": false,
  "supportFile": false,
  "video": false,
  "screenshotsFolder": "screenshots",
  "scrollBehavior": false
}
